{
    "Response": {
        "allPvECompetitive": {
            "allTime": {
                "activitiesEntered": {
                    "statId": "activitiesEntered",
                    "basic": {
                        "value": 96,
                        "displayValue": "96"
                    }
                },
                "activitiesWon": {
                    "statId": "activitiesWon",
                    "basic": {
                        "value": 38,
                        "displayValue": "38"
                    }
                },
                "assists": {
                    "statId": "assists",
                    "basic": {
                        "value": 1543,
                        "displayValue": "1543"
                    },
                    "pga": {
                        "value": 16.072916666666668,
                        "displayValue": "16.1"
                    }
                },
                "totalDeathDistance": {
                    "statId": "totalDeathDistance",
                    "basic": {
                        "value": 0,
                        "displayValue": "0.0"
                    }
                },
                "averageDeathDistance": {
                    "statId": "averageDeathDistance",
                    "basic": {
                        "value": 0,
                        "displayValue": "0.0"
                    }
                },
                "totalKillDistance": {
                    "statId": "totalKillDistance",
                    "basic": {
                        "value": 54882,
                        "displayValue": "54882.0"
                    }
                },
                "kills": {
                    "statId": "kills",
                    "basic": {
                        "value": 4211,
                        "displayValue": "4211"
                    },
                    "pga": {
                        "value": 43.864583333333336,
                        "displayValue": "43.9"
                    }
                },
                "averageKillDistance": {
                    "statId": "averageKillDistance",
                    "basic": {
                        "value": 13.033008786511518,
                        "displayValue": "13.0"
                    }
                },
                "secondsPlayed": {
                    "statId": "secondsPlayed",
                    "basic": {
                        "value": 85319,
                        "displayValue": "23h 41m"
                    },
                    "pga": {
                        "value": 888.73958333333337,
                        "displayValue": "14m 48s"
                    }
                },
                "deaths": {
                    "statId": "deaths",
                    "basic": {
                        "value": 465,
                        "displayValue": "465"
                    },
                    "pga": {
                        "value": 4.84375,
                        "displayValue": "4.8"
                    }
                },
                "averageLifespan": {
                    "statId": "averageLifespan",
                    "basic": {
                        "value": 183.08798283261802,
                        "displayValue": "3m 3s"
                    }
                },
                "bestSingleGameKills": {
                    "statId": "bestSingleGameKills",
                    "basic": {
                        "value": 94,
                        "displayValue": "94"
                    },
                    "activityId": "3023276894"
                },
                "bestSingleGameScore": {
                    "statId": "bestSingleGameScore",
                    "basic": {
                        "value": 97,
                        "displayValue": "97"
                    },
                    "activityId": "3410592654"
                },
                "opponentsDefeated": {
                    "statId": "opponentsDefeated",
                    "basic": {
                        "value": 5754,
                        "displayValue": "5754"
                    }
                },
                "efficiency": {
                    "statId": "efficiency",
                    "basic": {
                        "value": 12.374193548387098,
                        "displayValue": "12.37"
                    }
                },
                "killsDeathsRatio": {
                    "statId": "killsDeathsRatio",
                    "basic": {
                        "value": 9.0559139784946243,
                        "displayValue": "9.06"
                    }
                },
                "killsDeathsAssists": {
                    "statId": "killsDeathsAssists",
                    "basic": {
                        "value": 10.71505376344086,
                        "displayValue": "10.72"
                    }
                },
                "precisionKills": {
                    "statId": "precisionKills",
                    "basic": {
                        "value": 1260,
                        "displayValue": "1260"
                    },
                    "pga": {
                        "value": 13.125,
                        "displayValue": "13.1"
                    }
                },
                "resurrectionsPerformed": {
                    "statId": "resurrectionsPerformed",
                    "basic": {
                        "value": 99,
                        "displayValue": "99"
                    },
                    "pga": {
                        "value": 1.03125,
                        "displayValue": "1.0"
                    }
                },
                "resurrectionsReceived": {
                    "statId": "resurrectionsReceived",
                    "basic": {
                        "value": 79,
                        "displayValue": "79"
                    },
                    "pga": {
                        "value": 0.82291666666666663,
                        "displayValue": "0.8"
                    }
                },
                "score": {
                    "statId": "score",
                    "basic": {
                        "value": 3990,
                        "displayValue": "3,990"
                    },
                    "pga": {
                        "value": 41.5625,
                        "displayValue": "42"
                    }
                },
                "suicides": {
                    "statId": "suicides",
                    "basic": {
                        "value": 23,
                        "displayValue": "23"
                    },
                    "pga": {
                        "value": 0.23958333333333334,
                        "displayValue": "0.2"
                    }
                },
                "weaponKillsAutoRifle": {
                    "statId": "weaponKillsAutoRifle",
                    "basic": {
                        "value": 238,
                        "displayValue": "238"
                    },
                    "pga": {
                        "value": 2.4791666666666665,
                        "displayValue": "2.5"
                    }
                },
                "weaponKillsBeamRifle": {
                    "statId": "weaponKillsBeamRifle",
                    "basic": {
                        "value": 424,
                        "displayValue": "424"
                    },
                    "pga": {
                        "value": 4.416666666666667,
                        "displayValue": "4.4"
                    }
                },
                "weaponKillsBow": {
                    "statId": "weaponKillsBow",
                    "basic": {
                        "value": 220,
                        "displayValue": "220"
                    },
                    "pga": {
                        "value": 2.2916666666666665,
                        "displayValue": "2.3"
                    }
                },
                "weaponKillsFusionRifle": {
                    "statId": "weaponKillsFusionRifle",
                    "basic": {
                        "value": 34,
                        "displayValue": "34"
                    },
                    "pga": {
                        "value": 0.35416666666666669,
                        "displayValue": "0.4"
                    }
                },
                "weaponKillsHandCannon": {
                    "statId": "weaponKillsHandCannon",
                    "basic": {
                        "value": 375,
                        "displayValue": "375"
                    },
                    "pga": {
                        "value": 3.90625,
                        "displayValue": "3.9"
                    }
                },
                "weaponKillsTraceRifle": {
                    "statId": "weaponKillsTraceRifle",
                    "basic": {
                        "value": 31,
                        "displayValue": "31"
                    },
                    "pga": {
                        "value": 0.32291666666666669,
                        "displayValue": "0.3"
                    }
                },
                "weaponKillsMachineGun": {
                    "statId": "weaponKillsMachineGun",
                    "basic": {
                        "value": 63,
                        "displayValue": "63"
                    },
                    "pga": {
                        "value": 0.65625,
                        "displayValue": "0.7"
                    }
                },
                "weaponKillsPulseRifle": {
                    "statId": "weaponKillsPulseRifle",
                    "basic": {
                        "value": 387,
                        "displayValue": "387"
                    },
                    "pga": {
                        "value": 4.03125,
                        "displayValue": "4.0"
                    }
                },
                "weaponKillsRocketLauncher": {
                    "statId": "weaponKillsRocketLauncher",
                    "basic": {
                        "value": 37,
                        "displayValue": "37"
                    },
                    "pga": {
                        "value": 0.38541666666666669,
                        "displayValue": "0.4"
                    }
                },
                "weaponKillsScoutRifle": {
                    "statId": "weaponKillsScoutRifle",
                    "basic": {
                        "value": 18,
                        "displayValue": "18"
                    },
                    "pga": {
                        "value": 0.1875,
                        "displayValue": "0.2"
                    }
                },
                "weaponKillsShotgun": {
                    "statId": "weaponKillsShotgun",
                    "basic": {
                        "value": 112,
                        "displayValue": "112"
                    },
                    "pga": {
                        "value": 1.1666666666666667,
                        "displayValue": "1.2"
                    }
                },
                "weaponKillsSniper": {
                    "statId": "weaponKillsSniper",
                    "basic": {
                        "value": 6,
                        "displayValue": "6"
                    },
                    "pga": {
                        "value": 0.0625,
                        "displayValue": "0.1"
                    }
                },
                "weaponKillsSubmachinegun": {
                    "statId": "weaponKillsSubmachinegun",
                    "basic": {
                        "value": 1084,
                        "displayValue": "1084"
                    },
                    "pga": {
                        "value": 11.291666666666666,
                        "displayValue": "11.3"
                    }
                },
                "weaponKillsRelic": {
                    "statId": "weaponKillsRelic",
                    "basic": {
                        "value": 0,
                        "displayValue": "0"
                    },
                    "pga": {
                        "value": 0,
                        "displayValue": "0.0"
                    }
                },
                "weaponKillsSideArm": {
                    "statId": "weaponKillsSideArm",
                    "basic": {
                        "value": 17,
                        "displayValue": "17"
                    },
                    "pga": {
                        "value": 0.17708333333333334,
                        "displayValue": "0.2"
                    }
                },
                "weaponKillsSword": {
                    "statId": "weaponKillsSword",
                    "basic": {
                        "value": 0,
                        "displayValue": "0"
                    },
                    "pga": {
                        "value": 0,
                        "displayValue": "0.0"
                    }
                },
                "weaponKillsAbility": {
                    "statId": "weaponKillsAbility",
                    "basic": {
                        "value": 0,
                        "displayValue": "0"
                    },
                    "pga": {
                        "value": 0,
                        "displayValue": "0.0"
                    }
                },
                "weaponKillsGrenade": {
                    "statId": "weaponKillsGrenade",
                    "basic": {
                        "value": 274,
                        "displayValue": "274"
                    },
                    "pga": {
                        "value": 2.8541666666666665,
                        "displayValue": "2.9"
                    }
                },
                "weaponKillsGrenadeLauncher": {
                    "statId": "weaponKillsGrenadeLauncher",
                    "basic": {
                        "value": 73,
                        "displayValue": "73"
                    },
                    "pga": {
                        "value": 0.76041666666666663,
                        "displayValue": "0.8"
                    }
                },
                "weaponKillsSuper": {
                    "statId": "weaponKillsSuper",
                    "basic": {
                        "value": 197,
                        "displayValue": "197"
                    },
                    "pga": {
                        "value": 2.0520833333333335,
                        "displayValue": "2.1"
                    }
                },
                "weaponKillsMelee": {
                    "statId": "weaponKillsMelee",
                    "basic": {
                        "value": 429,
                        "displayValue": "429"
                    },
                    "pga": {
                        "value": 4.46875,
                        "displayValue": "4.5"
                    }
                },
                "weaponBestType": {
                    "statId": "weaponBestType",
                    "basic": {
                        "value": 6,
                        "displayValue": "Submachinegun"
                    }
                },
                "winLossRatio": {
                    "statId": "winLossRatio",
                    "basic": {
                        "value": 0.65517241379310343,
                        "displayValue": "0.66"
                    }
                },
                "allParticipantsCount": {
                    "statId": "allParticipantsCount",
                    "basic": {
                        "value": 918,
                        "displayValue": "918"
                    }
                },
                "allParticipantsScore": {
                    "statId": "allParticipantsScore",
                    "basic": {
                        "value": 204,
                        "displayValue": "204"
                    }
                },
                "allParticipantsTimePlayed": {
                    "statId": "allParticipantsTimePlayed",
                    "basic": {
                        "value": 839145,
                        "displayValue": "9d 17h"
                    }
                },
                "longestKillSpree": {
                    "statId": "longestKillSpree",
                    "basic": {
                        "value": 62,
                        "displayValue": "62"
                    },
                    "activityId": "2392133630"
                },
                "longestSingleLife": {
                    "statId": "longestSingleLife",
                    "basic": {
                        "value": 462,
                        "displayValue": "7m 42s"
                    },
                    "activityId": "3786703393"
                },
                "mostPrecisionKills": {
                    "statId": "mostPrecisionKills",
                    "basic": {
                        "value": 36,
                        "displayValue": "36"
                    },
                    "activityId": "2263818961"
                },
                "orbsDropped": {
                    "statId": "orbsDropped",
                    "basic": {
                        "value": 511,
                        "displayValue": "511"
                    },
                    "pga": {
                        "value": 5.322916666666667,
                        "displayValue": "5.3"
                    }
                },
                "orbsGathered": {
                    "statId": "orbsGathered",
                    "basic": {
                        "value": 301,
                        "displayValue": "301"
                    },
                    "pga": {
                        "value": 3.1354166666666665,
                        "displayValue": "3.1"
                    }
                },
                "remainingTimeAfterQuitSeconds": {
                    "statId": "remainingTimeAfterQuitSeconds",
                    "basic": {
                        "value": 3792,
                        "displayValue": "1h 3m"
                    },
                    "pga": {
                        "value": 39.5,
                        "displayValue": "0m 39s"
                    }
                },
                "teamScore": {
                    "statId": "teamScore",
                    "basic": {
                        "value": 82,
                        "displayValue": "82"
                    },
                    "pga": {
                        "value": 0.85416666666666663,
                        "displayValue": "1"
                    }
                },
                "totalActivityDurationSeconds": {
                    "statId": "totalActivityDurationSeconds",
                    "basic": {
                        "value": 94510,
                        "displayValue": "1d 2h"
                    },
                    "pga": {
                        "value": 984.47916666666663,
                        "displayValue": "16m 24s"
                    }
                },
                "fastestCompletionMs": {
                    "statId": "fastestCompletionMs",
                    "basic": {
                        "value": 883700,
                        "displayValue": "14:43.700"
                    },
                    "activityId": "2185942023"
                },
                "longestKillDistance": {
                    "statId": "longestKillDistance",
                    "basic": {
                        "value": 279,
                        "displayValue": "279.0"
                    },
                    "activityId": "3786746457"
                },
                "highestLightLevel": {
                    "statId": "highestLightLevel",
                    "basic": {
                        "value": 689,
                        "displayValue": "689"
                    }
                },
                "invasions": {
                    "statId": "invasions",
                    "basic": {
                        "value": 35,
                        "displayValue": "35"
                    }
                },
                "invasionKills": {
                    "statId": "invasionKills",
                    "basic": {
                        "value": 41,
                        "displayValue": "41"
                    }
                },
                "invasionDeaths": {
                    "statId": "invasionDeaths",
                    "basic": {
                        "value": 25,
                        "displayValue": "25"
                    }
                },
                "invaderKills": {
                    "statId": "invaderKills",
                    "basic": {
                        "value": 96,
                        "displayValue": "96"
                    }
                },
                "invaderDeaths": {
                    "statId": "invaderDeaths",
                    "basic": {
                        "value": 195,
                        "displayValue": "195"
                    }
                },
                "primevalKills": {
                    "statId": "primevalKills",
                    "basic": {
                        "value": 33,
                        "displayValue": "33"
                    }
                },
                "blockerKills": {
                    "statId": "blockerKills",
                    "basic": {
                        "value": 411,
                        "displayValue": "411"
                    }
                },
                "mobKills": {
                    "statId": "mobKills",
                    "basic": {
                        "value": 4074,
                        "displayValue": "4074"
                    }
                },
                "highValueKills": {
                    "statId": "highValueKills",
                    "basic": {
                        "value": 6,
                        "displayValue": "6"
                    }
                },
                "motesPickedUp": {
                    "statId": "motesPickedUp",
                    "basic": {
                        "value": 5064,
                        "displayValue": "5064"
                    }
                },
                "motesDeposited": {
                    "statId": "motesDeposited",
                    "basic": {
                        "value": 3990,
                        "displayValue": "3990"
                    }
                },
                "motesDenied": {
                    "statId": "motesDenied",
                    "basic": {
                        "value": 50,
                        "displayValue": "50"
                    }
                },
                "motesLost": {
                    "statId": "motesLost",
                    "basic": {
                        "value": 888,
                        "displayValue": "888"
                    }
                },
                "bankOverage": {
                    "statId": "bankOverage",
                    "basic": {
                        "value": 885,
                        "displayValue": "885"
                    }
                },
                "smallBlockersSent": {
                    "statId": "smallBlockersSent",
                    "basic": {
                        "value": 221,
                        "displayValue": "221"
                    }
                },
                "mediumBlockersSent": {
                    "statId": "mediumBlockersSent",
                    "basic": {
                        "value": 113,
                        "displayValue": "113"
                    }
                },
                "largeBlockersSent": {
                    "statId": "largeBlockersSent",
                    "basic": {
                        "value": 36,
                        "displayValue": "36"
                    }
                },
                "primevalDamage": {
                    "statId": "primevalDamage",
                    "basic": {
                        "value": 250704743,
                        "displayValue": "250704743"
                    }
                },
                "primevalHealing": {
                    "statId": "primevalHealing",
                    "basic": {
                        "value": 1.6,
                        "displayValue": "160%"
                    }
                },
                "roundsPlayed": {
                    "statId": "roundsPlayed",
                    "basic": {
                        "value": 199,
                        "displayValue": "199"
                    }
                },
                "roundsWon": {
                    "statId": "roundsWon",
                    "basic": {
                        "value": 82,
                        "displayValue": "82"
                    }
                },
                "fireTeamActivities": {
                    "statId": "fireTeamActivities",
                    "basic": {
                        "value": 20,
                        "displayValue": "20"
                    }
                }
            }
        }
    },
    "ErrorCode": 1,
    "ThrottleSeconds": 0,
    "ErrorStatus": "Success",
    "Message": "Ok",
    "MessageData": {}
}