{
    "Response": [
        {
            "iconPath": "/img/theme/destiny/icons/icon_xbl.png",
            "membershipType": 1,
            "membershipId": "4611686018450491554",
            "displayName": "Theo Bassaw"
        }
    ],
    "ErrorCode": 1,
    "ThrottleSeconds": 0,
    "ErrorStatus": "Success",
    "Message": "Ok",
    "MessageData": {}
}